[
  {
    "icon": "american-football-outline",
    "name": "Action Sheet",
    "redirectTo": "/actions-sheet"
  },
  {
    "icon": "alert-circle-outline",
    "name": "Alert",
    "redirectTo": "/alert"
  },
  {
    "icon": "beaker-outline",
    "name": "Avatar",
    "redirectTo": "/avatar"
  },
  {
    "icon": "radio-button-off-outline",
    "name": "Buttons",
    "redirectTo": "/button"
  },
  {
    "icon": "card-outline",
    "name": "Card",
    "redirectTo": "/card"
  },
  {
    "icon": "checkmark-circle-outline",
    "name": "Checks",
    "redirectTo": "/checkbox"
  },
  {
    "icon": "alarm-outline",
    "name": "Date Time",
    "redirectTo": "/datetime"
  },
  {
    "icon": "add-circle-outline",
    "name": "Float BTN",
    "redirectTo": "/floatbtn"
  },
  {
    "icon": "grid-outline",
    "name": "Grid Layout",
    "redirectTo": "/grid"
  },
  {
    "icon": "infinite-outline",
    "name": "Infinity Scroll",
    "redirectTo": "/infinitscroll"
  },
  {
    "icon": "tablet-landscape-outline",
    "name": "Inputs",
    "redirectTo": "/inputs"
  },
  {
    "icon": "list-circle-outline",
    "name": "List",
    "redirectTo": "/list"
  },
  {
    "icon": "list-outline",
    "name": "List Order",
    "redirectTo": "/reordelist"
  },
  {
    "icon": "reload-outline",
    "name": "Loading",
    "redirectTo": "/loading"
  },
  {
    "icon": "layers-outline",
    "name": "Modal",
    "redirectTo": "/modal"
  },
  {
    "icon": "copy-outline",
    "name": "Pop Over",
    "redirectTo": "/pop-over"
  },
  {
    "icon": "speedometer-outline",
    "name": "Progress Bar",
    "redirectTo": "/progressbar"
  },
  {
    "icon": "reload-circle-outline",
    "name": "Refresh",
    "redirectTo": "/refresher"
  },
  {
    "icon": "search-circle-outline",
    "name": "Search",
    "redirectTo": "/search"
  },
  {
    "icon": "extension-puzzle-outline",
    "name": "Segments",
    "redirectTo": "/segment"
  },
  {
    "icon": "skull-outline",
    "name": "Skeleton",
    "redirectTo": "/skeleton"
  },
  {
    "icon": "albums-outline",
    "name": "Slides",
    "redirectTo": "/slides"
  },
  {
    "icon": "wallet-outline",
    "name": "Tabs",
    "redirectTo": "/tabs"
  },
  {
    "icon": "radio-outline",
    "name": "Toast",
    "redirectTo": "/toast"
  }

]
